 natom 5
 ntypat 3
 typat
 1 2 3
 3 3
 znucl 55 82 35
 xred
    0.0000000000    0.0000000000    0.0000000000
    0.5000000000    0.5000000000    0.5000000000
    0.5000000000    0.5000000000    0.0000000000
    0.0000000000    0.5000000000    0.5000000000
    0.5000000000    0.0000000000    0.5000000000
 acell    1.0    1.0    1.0
 rprim
   10.6391580863    0.0000000000    0.0000000000
    0.0000000000   10.6391580863    0.0000000000
    0.0000000000    0.0000000000   10.6391580863

ionmov 0

#optcell 1
#ionmov 2
#ntime 50
#dilatmx 1.05
#ecutsm 0.5

ndtset 2
    
ecut 20.0
kptopt1 1
ngkpt1 8 8 8
nshiftk 1 
shiftk 0.0 0.0 0.0
nband1 25
#nbdbuf1 4

prtden1 1
toldfe1 1.0d-12

iscf2 -2
getden2 -1
#kptopt2 -5
nband2 25
#nbdbuf2 4
#ndivk2 10 10 10 10 10

# K-path in reduced coordinates:
# tolwfr 1e-20 iscf -2 getden ??
 ndivsm2 30
 kptopt2 -5
 kptbounds
     0.5 0.0 0.0 # X
     0.0 0.0 0.0 # $\Gamma$
     0.0 0.5 0.0 # Y
     0.0 0.5 0.5 # T
     0.5 0.5 0.5 # R
     0.0 0.0 0.0 # $\Gamma$
    #+0.00000  +0.00000  +0.00000  # $\Gamma$
    #+0.50000  +0.00000  +0.00000  # X
    #+0.50000  +0.50000  +0.00000  # S
    #+0.00000  +0.50000  +0.00000  # Y
    #+0.00000  +0.00000  +0.00000  # $\Gamma$
    #+0.00000  +0.00000  +0.50000  # Z
    #+0.50000  +0.00000  +0.50000  # U
    #+0.50000  +0.50000  +0.50000  # R
    #+0.00000  +0.50000  +0.50000  # T
    #+0.00000  +0.00000  +0.50000  # Z
    #+0.00000  +0.50000  +0.00000  # Y
    #+0.00000  +0.50000  +0.50000  # T
    #+0.50000  +0.00000  +0.50000  # U
    #+0.50000  +0.00000  +0.00000  # X
    #+0.50000  +0.50000  +0.00000  # S
    #+0.50000  +0.50000  +0.50000  # R
tolwfr2 1.0d-12
enunit2 1
nstep2 750

#nband 30

#Definition of the SCF procedure
nstep1 100          # Maximal number of SCF cycles
#toldfe1 1.0d-10    # Will stop when, twice in a row, the difference 
                  # between two consecutive evaluations of total energy 
                  # differ by less than toldfe (in Hartree) 
                  # This value is way too large for most realistic studies of materials
#diemac 2.0        # Although this is not mandatory, it is worth to
                  # precondition the SCF cycle. The model dielectric
                  # function used as the standard preconditioner
                  # is described in the "dielng" input variable section.
                  # Here, we follow the prescriptions for molecules 
                  # in a big box
