 natom 20
 ntypat 3
 typat
 1 1 1
 1 2 2
 2 2 3
 3 3 3
 3 3 3
 3 3 3
 3 3
 znucl 55 82 35
 xred
    0.4886000000    0.2500000000    0.0037400000
    0.5114000000    0.7500000000    0.9962600000
    0.0114000000    0.7500000000    0.5037400000
    0.9886000000    0.2500000000    0.4962600000
    0.0000000000    0.5000000000    0.0000000000
    0.5000000000    0.5000000000    0.5000000000
    0.0000000000    0.0000000000    0.0000000000
    0.5000000000    0.0000000000    0.5000000000
    0.2763000000    0.4894400000    0.2162800000
    0.7237000000    0.5105600000    0.7837200000
    0.2237000000    0.5105600000    0.7162800000
    0.7763000000    0.4894400000    0.2837200000
    0.7237000000    0.9894400000    0.7837200000
    0.2763000000    0.0105600000    0.2162800000
    0.7763000000    0.0105600000    0.2837200000
    0.2237000000    0.9894400000    0.7162800000
    0.0403700000    0.7500000000    0.0231400000
    0.9596300000    0.2500000000    0.9768600000
    0.4596300000    0.2500000000    0.5231400000
    0.5403700000    0.7500000000    0.4768600000
 acell    1.0    1.0    1.0
 rprim
   15.8585816448    0.0000000000    0.0000000000
    0.0000000000   22.2061717003    0.0000000000
    0.0000000000    0.0000000000   15.4655186107

#ionmov 0

#ndtset 2

optcell 0
ionmov 1
dtion 100
ntime 100
dilatmx 1.05
ecutsm 0.5

ecut 20.0
kptopt 1
ngkpt 4 4 4
nshiftk 1
shiftk 0.5 0.5 0.5

#prtden 1

#iscf2 -2
#getden2 -1
nband 100
#nbdbuf2 4
#ndivsm2 10 
#kptopt2 -5
#kptbounds2 
#    0.5 0.0 0.0 # X
#    0.0 0.0 0.0 # $\Gamma$
#    0.0 0.5 0.0 # Y
#    0.0 0.5 0.5 # T 
#    0.5 0.5 0.5 # R
#    0.0 0.0 0.0 # $\Gamma$

#tolwfr2 1.0d-12
#enunit2 1
#nstep2 750


#nband 30

#Definition of the SCF procedure
nstep 40          # Maximal number of SCF cycles
toldfe 1.0d-12    # Will stop when, twice in a row, the difference
                  # between two consecutive evaluations of total energy
                  # differ by less than toldfe (in Hartree)
                  # This value is way too large for most realistic studies of materials
#diemac 2.0        # Although this is not mandatory, it is worth to
                  # precondition the SCF cycle. The model dielectric
                  # function used as the standard preconditioner
                  # is described in the "dielng" input variable section.
                  # Here, we follow the prescriptions for molecules
                  # in a big box
