31
New structure
Cs    3.862578    2.887500    0.018936
Cs    4.357422    8.662500    7.971064
Cs    0.247422    8.662500    4.013936
Cs    7.972579    2.887500    3.976063
Pb    0.000000    5.775000    0.000000
Pb    0.000000    5.775000    7.990000
Pb    8.220000    5.775000    0.000000
Pb    8.220000    5.775000    7.990000
Pb    4.110000    5.775000    3.995000
Pb    0.000000    0.000000    0.000000
Pb    0.000000    0.000000    7.990000
Pb    0.000000   11.550000    0.000000
Pb    0.000000   11.550000    7.990000
Pb    8.220000    0.000000    0.000000
Pb    8.220000    0.000000    7.990000
Pb    8.220000   11.550000    0.000000
Pb    8.220000   11.550000    7.990000
Pb    4.110000    0.000000    3.995000
Pb    4.110000   11.550000    3.995000
Br    2.251951    5.981745    1.450025
Br    5.968049    5.568255    6.539975
Br    1.858049    5.568255    5.445025
Br    6.361951    5.981745    2.544975
Br    5.968049    0.206745    6.539975
Br    2.251951   11.343255    1.450025
Br    6.361951   11.343255    2.544975
Br    1.858049    0.206745    5.445025
Br    0.256875    8.662500    7.979613
Br    7.963125    2.887500    0.010387
Br    3.853125    2.887500    3.984613
Br    4.366875    8.662500    4.005387
